<svg width="25" height="24" viewBox="0 0 25 24" fill="none" xmlns="http://www.w3.org/2000/svg">
<path d="M11.3961 16.7301C11.2649 16.7304 11.1349 16.7047 11.0135 16.6546C10.8922 16.6045 10.782 16.531 10.6891 16.4381L6.44714 12.1951C6.35157 12.103 6.27531 11.9927 6.22282 11.8707C6.17033 11.7487 6.14265 11.6175 6.1414 11.4848C6.14015 11.352 6.16536 11.2203 6.21556 11.0974C6.26575 10.9744 6.33993 10.8627 6.43375 10.7688C6.52758 10.6748 6.63917 10.6005 6.76203 10.5501C6.88489 10.4997 7.01655 10.4743 7.14933 10.4754C7.28211 10.4765 7.41335 10.504 7.53539 10.5563C7.65743 10.6086 7.76783 10.6847 7.86014 10.7801L11.3951 14.3151L17.7601 7.95214C17.9477 7.7645 18.202 7.65903 18.4673 7.65894C18.7326 7.65884 18.987 7.76413 19.1746 7.95164C19.3623 8.13915 19.4678 8.39351 19.4678 8.65878C19.4679 8.92406 19.3627 9.1785 19.1751 9.36614L12.1031 16.4381C12.0103 16.531 11.9001 16.6045 11.7788 16.6546C11.6574 16.7047 11.5274 16.7304 11.3961 16.7301Z" fill="#2FAB73"/>
</svg>
